…
## Example

### SSD Visit Count Data

The package contains a count dataset corresponding to SSD visits prior
to HSV encephalitis. The change-point functions require a count dataset
with two variables: `days_since_dx` is the number of days since
diagnosis (negative values before diagnosis) and `n` is the number of
visits

``` r
visit_counts
```

    ## # A tibble: 366 x 2
    ##    days_since_dx     n
    ##            <dbl> <dbl>
    ##  1          -365    48
    ##  2          -364    49
    ##  3          -363    36
    ##  4          -362    34
    ##  5          -361    41
    ##  6          -360    50
    ##  7          -359    32
    ##  8          -358    24
    ##  9          -357    45
    ## 10          -356    33
    ## # … with 356 more rows
…
``` r
profile_res <- fit_cp_profile(count_data = visit_counts,
                              low = 40,
                              high = 180)
```

We can view the change-points and the results across the various
parameters:

``` r
profile_res
```

    ## # A tibble: 1,905 x 6
    ##      low  high model      bound res                 cp
    ##    <int> <dbl> <chr>      <dbl> <list>           <dbl>
    ##  1    40   180 lm          0    <named list [3]>    33
    ##  2    40   180 lm          0.9  <named list [3]>    25
    ##  3    40   180 lm          0.95 <named list [3]>    25
    ##  4    40   180 exp         0    <named list [3]>    32
    ##  5    40   180 exp         0.9  <named list [3]>    25
    ##  6    40   180 exp         0.95 <named list [3]>    23
    ##  7    40   180 lm_period   0    <named list [3]>    33
    ##  8    40   180 lm_period   0.9  <named list [3]>    32
    ##  9    40   180 lm_period   0.95 <named list [3]>    25
    ## 10    40   180 exp_period  0    <named list [3]>    33
    ## # … with 1,895 more rows
…
